*** Required perl modules not found to build perl bindings.  Requirements are:
***
***     ExtUtils::Depends    0.300
***     ExtUtils::PkgConfig  1.000
***     Glib                 1.020
***
*** Please install the required dependencies and run ./configure again.
